4 Practical Three – Statistical Computing
…
    filter, lag

The following objects are masked from 'package:base':

    intersect, setdiff, setequal, union

library(tidyr)

4.0.2 Displaying data in alternative form

data(flights,package="nycflights13")
tibble(flights)

# A tibble: 336,776 × 19
    year month   day dep_time sched_dep_time dep_delay arr_time sched_arr_time
   <int> <int> <int>    <int>          <int>     <dbl>    <int>          <int>
 1  2013     1     1      517            515         2      830            819
 2  2013     1     1      533            529         4      850            830
 3  2013     1     1      542            540         2      923            850
 4  2013     1     1      544            545        -1     1004           1022
 5  2013     1     1      554            600        -6      812            837
 6  2013     1     1      554            558        -4      740            728
 7  2013     1     1      555            600        -5      913            854
 8  2013     1     1      557            600        -3      709            723
 9  2013     1     1      557            600        -3      838            846
10  2013     1     1      558            600        -2      753            745
# ℹ 336,766 more rows
# ℹ 11 more variables: arr_delay <dbl>, carrier <chr>, flight <int>,
#   tailnum <chr>, origin <chr>, dest <chr>, air_time <dbl>, distance <dbl>,
#   hour <dbl>, minute <dbl>, time_hour <dttm>
…
4.0.4 Explaining Standard deviation with demonstration

flights|>filter(carrier=="OO") 

# A tibble: 32 × 19
    year month   day dep_time sched_dep_time dep_delay arr_time sched_arr_time
   <int> <int> <int>    <int>          <int>     <dbl>    <int>          <int>
 1  2013     1    30     1222           1115        67     1402           1215
 2  2013    11     3     1424           1430        -6     1629           1634
 3  2013    11    10     1443           1430        13     1701           1634
 4  2013    11    17     1422           1430        -8     1610           1634
 5  2013    11    25     1803           1759         4     2011           2017
 6  2013    11    30     1648           1647         1     1814           1811
 7  2013     6    15     1626           1635        -9     1810           1830
 8  2013     6    22     1846           1635       131     2107           1830
 9  2013     8    27     1755           1805       -10     1956           1953
10  2013     8    28     2039           1805       154     2213           1953
# ℹ 22 more rows
# ℹ 11 more variables: arr_delay <dbl>, carrier <chr>, flight <int>,
#   tailnum <chr>, origin <chr>, dest <chr>, air_time <dbl>, distance <dbl>,
#   hour <dbl>, minute <dbl>, time_hour <dttm>
…
[1] 0.1052391

4.0.7 Routes that more than one airline flies

flights |> select(origin,dest,carrier)|>distinct() |>group_by(origin,dest) |> summarise(countc=n()) |>filter(countc>1)

`summarise()` has grouped output by 'origin'. You can override using the
`.groups` argument.

# A tibble: 128 × 3
# Groups:   origin [3]
   origin dest  countc
   <chr>  <chr>  <int>
 1 EWR    ATL        4
 2 EWR    AUS        2
 3 EWR    BDL        2
 4 EWR    BNA        2
 5 EWR    BOS        3
 6 EWR    BWI        2
 7 EWR    CHS        2
 8 EWR    CLE        2
 9 EWR    CLT        3
10 EWR    CVG        2
# ℹ 118 more rows

4.0.8 Average arrival delay for each airline

meancalc<-flights|> select(origin,dest,carrier,arr_delay) |>group_by(origin,dest,carrier) |> summarise(meanarr = mean(arr_delay,na.rm=TRUE)) |> left_join(airlines,by= "carrier")

`summarise()` has grouped output by 'origin', 'dest'. You can override using
the `.groups` argument.

meancalc

# A tibble: 439 × 5
# Groups:   origin, dest [224]
   origin dest  carrier meanarr name                    
   <chr>  <chr> <chr>     <dbl> <chr>                   
 1 EWR    ALB   EV        14.4  ExpressJet Airlines Inc.
 2 EWR    ANC   UA        -2.5  United Air Lines Inc.   
 3 EWR    ATL   9E        -6.25 Endeavor Air Inc.       
 4 EWR    ATL   DL        10.0  Delta Air Lines Inc.    
 5 EWR    ATL   EV        19.5  ExpressJet Airlines Inc.
 6 EWR    ATL   UA        10.5  United Air Lines Inc.   
 7 EWR    AUS   UA         4.28 United Air Lines Inc.   
 8 EWR    AUS   WN       -11.2  Southwest Airlines Co.  
 9 EWR    AVL   EV         8.80 ExpressJet Airlines Inc.
10 EWR    BDL   EV         6.78 ExpressJet Airlines Inc.
# ℹ 429 more rows
…
